<svg xmlns="http://www.w3.org/2000/svg" xmlns:xlink="http://www.w3.org/1999/xlink" width="1038.246" height="297.59" viewBox="0 0 1038.246 297.59">
  <g id="Group_495" data-name="Group 495" transform="translate(-305 -74.352)">
    <path id="Path_930" data-name="Path 930" d="M830.257,115.684a15.985,15.985,0,0,1,16-16H950.088a22,22,0,0,1,22,22v36.03" fill="none" stroke="#000" stroke-linecap="round" stroke-linejoin="round" stroke-width="2" stroke-dasharray="0 8"/>
    <path id="Path_480" data-name="Path 480" d="M572.764,79.938H806a22,22,0,0,1,22,22v29.354" fill="none" stroke="#000" stroke-linecap="round" stroke-linejoin="round" stroke-width="2" stroke-dasharray="0 8"/>
    <path id="Path_480-2" data-name="Path 480" d="M395.193,174.134v-71.52a22,22,0,0,1,22-22H570.447" fill="none" stroke="#000" stroke-linecap="round" stroke-linejoin="round" stroke-width="2"/>
    <path id="Path_482" data-name="Path 482" d="M972.088,154.808V169.95a22,22,0,0,0,22,22h292.4a22,22,0,0,1,22,22v15.142" fill="none" stroke="#000" stroke-linecap="round" stroke-linejoin="round" stroke-width="2"/>
    <circle id="Ellipse_279" data-name="Ellipse 279" cx="5.586" cy="5.586" r="5.586" transform="translate(966.502 146.542)" fill="#30ba78"/>
    <circle id="Ellipse_280" data-name="Ellipse 280" cx="5.586" cy="5.586" r="5.586" transform="translate(567.178 74.352)"/>
    <circle id="Ellipse_281" data-name="Ellipse 281" cx="3.199" cy="3.199" r="3.199" transform="translate(813.261 290.189)" fill="#afe5cc"/>
    <g id="Group_472" data-name="Group 472">
      <g id="Group_471" data-name="Group 471">
        <path id="Path_931" data-name="Path 931" d="M808.233,139.824v70.967A63.1,63.1,0,0,0,800.7,327.727H855a63.1,63.1,0,0,0-12.711-118.382V139.824" fill="#fff"/>
        <path id="Path_932" data-name="Path 932" d="M765.254,262.809A63.146,63.146,0,0,0,800.7,327.727H855a63.124,63.124,0,0,0,35.443-64.918Z" fill="#30ba78"/>
        <path id="Path_933" data-name="Path 933" d="M808.233,139.824" fill="none" stroke="#000" stroke-linecap="round" stroke-linejoin="round" stroke-width="2"/>
        <path id="Path_934" data-name="Path 934" d="M808.233,139.824v70.967A63.1,63.1,0,0,0,800.7,327.727H855a63.1,63.1,0,0,0-12.711-118.382V139.824" fill="none" stroke="#000" stroke-linecap="round" stroke-linejoin="round" stroke-width="2"/>
      </g>
      <g id="Group_241" data-name="Group 241">
        <path id="Path_472" data-name="Path 472" d="M884.5,303.121c0,2.616-25.555,4.746-56.648,4.746s-56.652-2.13-56.652-4.746" fill="none" stroke="#000" stroke-linecap="round" stroke-miterlimit="10" stroke-width="4"/>
        <line id="Line_199" data-name="Line 199" x1="33.1" y2="55.552" transform="translate(751 306.102)" fill="none" stroke="#000" stroke-linecap="round" stroke-miterlimit="10" stroke-width="4"/>
        <line id="Line_200" data-name="Line 200" x2="33.1" y2="55.552" transform="translate(871.658 306.102)" fill="none" stroke="#000" stroke-linecap="round" stroke-miterlimit="10" stroke-width="4"/>
        <line id="Line_201" data-name="Line 201" y2="54.64" transform="translate(827.849 307.867)" fill="none" stroke="#000" stroke-linecap="round" stroke-miterlimit="10" stroke-width="4"/>
      </g>
      <circle id="Ellipse_282" data-name="Ellipse 282" cx="4.349" cy="4.349" r="4.349" transform="translate(808.16 235.732)" fill="#30ba78"/>
      <circle id="Ellipse_283" data-name="Ellipse 283" cx="4.09" cy="4.09" r="4.09" transform="translate(842.474 257.605)" fill="#30ba78"/>
      <circle id="Ellipse_284" data-name="Ellipse 284" cx="5.737" cy="5.737" r="5.737" transform="translate(799.598 274.301)" fill="#afe5cc"/>
      <circle id="Ellipse_285" data-name="Ellipse 285" cx="8.306" cy="8.306" r="8.306" transform="translate(819.543 205.439)" fill="#30ba78"/>
    </g>
    <g id="Group_475" data-name="Group 475">
      <g id="Group_257" data-name="Group 257">
        <g id="Group_245" data-name="Group 245">
          <rect id="Rectangle_193" data-name="Rectangle 193" width="2.86" height="132.158" transform="translate(1212.001 239.784)"/>
          <rect id="Rectangle_194" data-name="Rectangle 194" width="2.86" height="132.158" transform="translate(1340.386 239.784)"/>
          <rect id="Rectangle_195" data-name="Rectangle 195" width="131.245" height="4.077" transform="translate(1212.001 367.865)"/>
          <line id="Line_204" data-name="Line 204" x2="129.845" transform="translate(1213.4 275.501)" fill="none" stroke="#000" stroke-miterlimit="10" stroke-width="2"/>
          <g id="Group_473" data-name="Group 473">
            <g id="Group_243" data-name="Group 243">
              <path id="Path_935" data-name="Path 935" d="M1234.393,252.865" fill="#fff"/>
              <path id="Path_936" data-name="Path 936" d="M1234.393,252.865v96.2a10.335,10.335,0,0,0,10.326,10.344h2.208a10.335,10.335,0,0,0,10.343-10.327V252.865" fill="#fff"/>
            </g>
            <g id="Group_243-2" data-name="Group 243">
              <path id="Path_937" data-name="Path 937" d="M1234.393,295.84v53.226a10.335,10.335,0,0,0,10.326,10.344h2.208a10.335,10.335,0,0,0,10.343-10.327V295.84Z" fill="#0c322c"/>
            </g>
            <g id="Group_243-3" data-name="Group 243">
              <path id="Path_938" data-name="Path 938" d="M1234.393,252.865" fill="none" stroke="#000" stroke-linecap="round" stroke-linejoin="round" stroke-width="2"/>
              <path id="Path_939" data-name="Path 939" d="M1234.393,252.865v96.2a10.335,10.335,0,0,0,10.326,10.344h2.208a10.335,10.335,0,0,0,10.343-10.327V252.865" fill="none" stroke="#000" stroke-linecap="round" stroke-linejoin="round" stroke-width="2"/>
            </g>
          </g>
          <g id="Group_474" data-name="Group 474">
            <g id="Group_243-4" data-name="Group 243">
              <path id="Path_940" data-name="Path 940" d="M1297.054,252.865" fill="#fff"/>
              <path id="Path_941" data-name="Path 941" d="M1297.054,252.865v96.2a10.335,10.335,0,0,0,10.326,10.344h2.208a10.336,10.336,0,0,0,10.343-10.327V252.865" fill="#fff"/>
            </g>
            <g id="Group_243-5" data-name="Group 243">
              <path id="Path_942" data-name="Path 942" d="M1297.054,284.942v64.124a10.335,10.335,0,0,0,10.326,10.344h2.208a10.336,10.336,0,0,0,10.343-10.327V284.942Z" fill="#0c322c"/>
            </g>
            <g id="Group_243-6" data-name="Group 243">
              <path id="Path_943" data-name="Path 943" d="M1297.054,252.865" fill="none" stroke="#000" stroke-linecap="round" stroke-miterlimit="10" stroke-width="2"/>
              <path id="Path_944" data-name="Path 944" d="M1297.054,252.865v96.2a10.335,10.335,0,0,0,10.326,10.344h2.208a10.336,10.336,0,0,0,10.343-10.327V252.865" fill="none" stroke="#000" stroke-linecap="round" stroke-miterlimit="10" stroke-width="2"/>
            </g>
          </g>
        </g>
      </g>
      <circle id="Ellipse_286" data-name="Ellipse 286" cx="2.724" cy="2.724" r="2.724" transform="translate(1242.008 283.308)" fill="#0c322c"/>
      <circle id="Ellipse_287" data-name="Ellipse 287" cx="2.724" cy="2.724" r="2.724" transform="translate(1247.457 326.625)" fill="#fff"/>
      <circle id="Ellipse_288" data-name="Ellipse 288" cx="2.724" cy="2.724" r="2.724" transform="translate(1302.232 294.841)" fill="#fff"/>
      <circle id="Ellipse_289" data-name="Ellipse 289" cx="1.792" cy="1.792" r="1.792" transform="translate(1308.886 322.54)" fill="#fff"/>
      <circle id="Ellipse_290" data-name="Ellipse 290" cx="3.536" cy="3.536" r="3.536" transform="translate(1245.02 259.884)" fill="#0c322c"/>
      <circle id="Ellipse_291" data-name="Ellipse 291" cx="3.536" cy="3.536" r="3.536" transform="translate(1241.197 309.195)" fill="#fff"/>
      <circle id="Ellipse_292" data-name="Ellipse 292" cx="3.536" cy="3.536" r="3.536" transform="translate(1304.957 263.42)" fill="#0c322c"/>
    </g>
    <g id="Group_480" data-name="Group 480">
      <g id="Group_477" data-name="Group 477">
        <path id="Path_945" data-name="Path 945" d="M388.363,212.959" fill="none" stroke="#000" stroke-linecap="round" stroke-linejoin="round" stroke-width="2"/>
        <g id="Group_476" data-name="Group 476">
          <path id="Path_946" data-name="Path 946" d="M445.344,327.251l-30.471-55.658H381.5l-30.472,55.658a4,4,0,0,0,3.509,5.921h87.3A4,4,0,0,0,445.344,327.251Z" fill="#ff8e77"/>
          <image id="Rectangle_815" data-name="Rectangle 815" width="97" height="64" transform="translate(350 270.114)" xlink:href="data:image/png;base64,iVBORw0KGgoAAAANSUhEUgAAAGEAAABACAYAAAAK9hkwAAAAAXNSR0IArs4c6QAAADhlWElmTU0AKgAAAAgAAYdpAAQAAAABAAAAGgAAAAAAAqACAAQAAAABAAAAYaADAAQAAAABAAAAQAAAAADMnJkzAAABvUlEQVR4Ae2bwW3DMBAEoyBVpI00klLdSNpwGwr4YEDwsZDNy3KDjD+CcNTdcsfrj8zjPM+XlM/t/vUj5vP941jRVdlrRceVZ1+vLHKsGU1r8+b7RzTMz873j/RyrD2SkuDYcOKMmCQkmuPSBASX02IOEIQ5rhIQXE6LOUAQ5rhKQHA5LeYAQZjjKgHB5bSYAwRhjqsEBJfTYg4QhDmuEhBcTos5QBDmuEpAcDkt5gBBmOMqAcHltJgDBGGOq/TmGvTX54yvSFfff89ekITZkQ33QLho+vjtH1Nx8XG5rAxCtTCpelNxBFEpoQzCbwms3GxVr+q98peXKjILfcqSsKDh3z8KhICvABCAEOBAgASSAIQABwIkkAQgBDgQIIEkACHAgQAJJAEIAQ4ESCAJQAhwIEACSQBCgAMBEkgCEAIcCJBAEoAQ4ECABJIAhAAHAiSQBCAEOBAggSQAIcCBAAkkAQgBDgRIIAlACHAgQAJJAEKAAwESSEIABI7QboTQz/mRhE0QOoA2HggbIIwA2iHEp3+OxkZ9HyunGiv7VfZqe6vu1/3q16XTm6O4FQBdTGW/yl5NX3W/vud2/QbL6ln/B8gvJgAAAABJRU5ErkJggg=="/>
        </g>
        <path id="Path_947" data-name="Path 947" d="M408.007,259.051V205.027H388.363v54.024L381.5,271.593h33.376Z" fill="#fff"/>
        <path id="Path_948" data-name="Path 948" d="M388.363,205.027v54.024l-37.338,68.2a4,4,0,0,0,3.509,5.921h87.3a4,4,0,0,0,3.508-5.921l-37.337-68.2V205.027" fill="none" stroke="#000" stroke-linecap="round" stroke-linejoin="round" stroke-width="2"/>
      </g>
      <g id="Group_478" data-name="Group 478">
        <circle id="Ellipse_293" data-name="Ellipse 293" cx="3.868" cy="3.868" r="3.868" transform="translate(391.538 257.099)" fill="#ff8e77"/>
        <image id="Rectangle_816" data-name="Rectangle 816" width="10" height="10" transform="translate(390 256.114)" xlink:href="data:image/png;base64,iVBORw0KGgoAAAANSUhEUgAAAAoAAAAKCAYAAACNMs+9AAAAAXNSR0IArs4c6QAAADhlWElmTU0AKgAAAAgAAYdpAAQAAAABAAAAGgAAAAAAAqACAAQAAAABAAAACqADAAQAAAABAAAACgAAAAAYsJrPAAAAHElEQVQYGWP8//8/AzGAiRhFIDWjCvGGFNHBAwDVEgMRZ7+oZgAAAABJRU5ErkJggg=="/>
      </g>
      <circle id="Ellipse_294" data-name="Ellipse 294" cx="3.133" cy="3.133" r="3.133" transform="translate(399.993 309.235)" fill="#ffbbad"/>
      <circle id="Ellipse_295" data-name="Ellipse 295" cx="4.17" cy="4.17" r="4.17" transform="translate(385.879 281.136)" fill="#ffbbad"/>
      <g id="Group_479" data-name="Group 479">
        <circle id="Ellipse_296" data-name="Ellipse 296" cx="2.696" cy="2.696" r="2.696" transform="translate(397.296 243.877)" fill="#ff8e77"/>
        <image id="Rectangle_817" data-name="Rectangle 817" width="8" height="7" transform="translate(396 243.114)" xlink:href="data:image/png;base64,iVBORw0KGgoAAAANSUhEUgAAAAgAAAAHCAYAAAA1WQxeAAAAAXNSR0IArs4c6QAAADhlWElmTU0AKgAAAAgAAYdpAAQAAAABAAAAGgAAAAAAAqACAAQAAAABAAAACKADAAQAAAABAAAABwAAAAA0HM65AAAAF0lEQVQIHWP8//8/Az7AhE8SJDckFAAAs6cDC7xYlSwAAAAASUVORK5CYII="/>
      </g>
      <g id="Group_258" data-name="Group 258">
        <g id="Group_242" data-name="Group 242">
          <line id="Line_202" data-name="Line 202" y2="178.887" transform="translate(329.764 185.458)" fill="none" stroke="#000" stroke-miterlimit="10" stroke-width="3"/>
          <line id="Line_203" data-name="Line 203" x2="110.801" transform="translate(319.664 223.061)" fill="none" stroke="#000" stroke-miterlimit="10" stroke-width="3"/>
          <rect id="Rectangle_192" data-name="Rectangle 192" width="161.409" height="7.545" transform="translate(305 364.345)"/>
        </g>
      </g>
    </g>
  </g>
</svg>
