[
  {
    "component": "radio-buttons",
    "states": [
      {
        "status": "default",
        "how_to_use": "This is the default state of the element.",
        "code": [
          "<div class='form-group'>",
          "   <div class='margin-bottom-s'><strong>Choose one of the following options</strong></div>",
          "   <div class='form-check'>",
          "       <input class='form-check-input eos-radio-btn' type='radio' name='color' id='red' value='option1' checked>",
          "       <label class='form-check-label' for='red'>",
          "           Red",
          "       </label>",
          "   </div>",
          "   <div class='form-check'>",
          "       <input class='form-check-input eos-radio-btn' type='radio' name='color' id='yellow' value='option2'>",
          "       <label class='form-check-label' for='yellow'>",
          "           Yellow",
          "       </label>",
          "   </div>",
          "   <div class='form-check'>",
          "       <input class='form-check-input eos-radio-btn' type='radio' name='color' id='blue' value='option3'>",
          "       <label class='form-check-label' for='blue'>",
          "           Blue",
          "       </label>",
          "   </div>",
          "</div>"
        ]
      },
      {
        "status": "focused",
        "how_to_use": "A focused state communicates when a user has highlighted an element using a keyboard or currently interacting with the field. ",
        "code": [
          "<div class='form-group'>",
          "   <div class='margin-bottom-s'><strong>Choose one of the following options</strong></div>",
          "   <div class='form-check'>",
          "       <input class='form-check-input eos-radio-btn' type='radio' name='color' id='red' value='option1' autofocus>",
          "       <label class='form-check-label' for='red'>",
          "           Red",
          "       </label>",
          "   </div>",
          "   <div class='form-check'>",
          "       <input class='form-check-input eos-radio-btn' type='radio' name='color' id='yellow' value='option2'>",
          "       <label class='form-check-label' for='yellow'>",
          "           Yellow",
          "       </label>",
          "   </div>",
          "   <div class='form-check'>",
          "       <input class='form-check-input eos-radio-btn' type='radio' name='color' id='blue' value='option3'>",
          "       <label class='form-check-label' for='blue'>",
          "           Blue",
          "       </label>",
          "   </div>",
          "</div>"
        ]
      },
      {
        "status": "selected",
        "how_to_use": "This shows the option selected by the user.",
        "code": [
          "<div class='form-group'>",
          "   <div class='margin-bottom-s'><strong>Choose one of the following options</strong></div>",
          "   <div class='form-check'>",
          "       <input class='form-check-input eos-radio-btn' type='radio' name='color' id='red' value='option1' checked>",
          "       <label class='form-check-label' for='red'>",
          "           Red",
          "       </label>",
          "   </div>",
          "   <div class='form-check'>",
          "       <input class='form-check-input eos-radio-btn' type='radio' name='color' id='yellow' value='option2'>",
          "       <label class='form-check-label' for='yellow'>",
          "           Yellow",
          "       </label>",
          "   </div>",
          "   <div class='form-check'>",
          "       <input class='form-check-input eos-radio-btn' type='radio' name='color' id='blue' value='option3'>",
          "       <label class='form-check-label' for='blue'>",
          "           Blue",
          "       </label>",
          "   </div>",
          "</div>"
        ]
      },
      {
        "status": "error",
        "how_to_use": "When possible, show an error message to inform users why the radio button needs to be selected.",
        "code": [
          "<div class='form-group'>",
          "   <div class='margin-bottom-s'><strong>Choose one of the following options</strong></div>",
          "   <div class='form-check'>",
          "       <input class='form-check-input eos-radio-btn' type='radio' name='color' id='red' value='option1'>",
          "       <label class='form-check-label' for='red'>",
          "           Red",
          "       </label>",
          "   </div>",
          "   <div class='form-check'>",
          "       <input class='form-check-input eos-radio-btn' type='radio' name='color' id='yellow' value='option2'>",
          "       <label class='form-check-label' for='yellow'>",
          "           Yellow",
          "       </label>",
          "   </div>",
          "   <div class='form-check'>",
          "       <input class='form-check-input eos-radio-btn' type='radio' name='color' id='blue' value='option3'>",
          "       <label class='form-check-label' for='blue'>",
          "           Blue",
          "       </label>",
          "   </div>",
          "   <span class='error-msg'>You need to choose one of the options above</span> ",
          "</div>"
        ]
      },
      {
        "status": "disabled",
        "how_to_use": "Prevents the user from interacting with a field until certain conditions are met. When possible, show an alert or error message to inform users why it is disabled.",
        "code": [
          "<div class='form-group'>",
          "   <div class='margin-bottom-s'><label class='disabled'>Choose one of the following options</label></div>",
          "   <div class='form-check'>",
          "       <input class='form-check-input eos-radio-btn' type='radio' name='color' id='red' value='option1' disabled>",
          "       <label class='form-check-label' for='red'>",
          "           Red",
          "       </label>",
          "   </div>",
          "   <div class='form-check'>",
          "       <input class='form-check-input eos-radio-btn' type='radio' name='color' id='yellow' value='option2' disabled>",
          "       <label class='form-check-label' for='yellow'>",
          "           Yellow",
          "       </label>",
          "   </div>",
          "   <div class='form-check'>",
          "       <input class='form-check-input eos-radio-btn' type='radio' name='color' id='blue' value='option3' disabled>",
          "       <label class='form-check-label' for='blue'>",
          "           Blue",
          "       </label>",
          "   </div>",
          "</div>"
        ]
      },
      {
        "status": "inline",
        "how_to_use": "Use the .form-check-inline class in the .form-check wrapper div to group radio buttons horizontally.",
        "code": [
          "<div class='form-group'>",
          "   <div class='margin-bottom-s'><label>Choose one of the following options</label></div>",
          "   <div class='form-check form-check-inline'>",
          "       <input class='form-check-input eos-radio-btn' type='radio' name='color' id='red' value='option1'>",
          "       <label class='form-check-label' for='red'>",
          "           Red",
          "       </label>",
          "   </div>",
          "   <div class='form-check form-check-inline'>",
          "       <input class='form-check-input eos-radio-btn' type='radio' name='color' id='yellow' value='option2'>",
          "       <label class='form-check-label' for='yellow'>",
          "           Yellow",
          "       </label>",
          "   </div>",
          "   <div class='form-check form-check-inline'>",
          "       <input class='form-check-input eos-radio-btn' type='radio' name='color' id='blue' value='option3'>",
          "       <label class='form-check-label' for='blue'>",
          "           Blue",
          "       </label>",
          "   </div>",
          "</div>"
        ]
      }
    ]
  }
]
