[
  {
    "states": [
      {
        "status": "default",
        "how_to_use": "",
        "code": [
          "<div class='card eos-table-card'>",
          " <div class='card-header'>",
          "   <span class='eos-table-card-title'>Default table</span>",
          "   <div class='eos-table-card-controls'>",
          "     <ul class='list-inline eos-table-actions'>",
          "       <li class='list-inline-item'>",
          "         <a>",
          "           <i class='eos-icons eos-18 eos-dark' data-toggle='tooltip' title='Search'>",
          "             search",
          "           </i>",
          "         </a>",
          "       </li>",
          "       <li class='list-inline-item'>",
          "         <a>",
          "           <i class='eos-icons eos-18 eos-dark' data-toggle='tooltip' title='File download'>",
          "             file_download",
          "           </i>",
          "          </a>",
          "       </li>",
          "       <li class='list-inline-item'>",
          "         <a>",
          "           <i class='eos-icons eos-18 eos-dark' data-toggle='tooltip' title='Settings'>",
          "             settings",
          "           </i>",
          "         </a>",
          "       </li>",
          "       <li class='list-inline-item'>",
          "         <a>",
          "           <i class='eos-icons eos-18 eos-dark' data-toggle='tooltip' title='Delete'>",
          "             delete",
          "           </i>",
          "         </a>",
          "       </li>",
          "     </ul>",
          "   </div>",
          "  </div>",
          "  <div class='table-responsive'>",
          "     <table class='table eos-table'>",
          "       <thead>",
          "         <tr>",
          "           <th scope='col'>ID</th>",
          "           <th scope='col'>Company</th>",
          "           <th scope='col'>Status</th>",
          "           <th scope='col' colspan='2'>Active</th>",
          "         </tr>",
          "       </thead>",
          "       <tbody>",
          "         <tr>",
          "           <td>",
          "             <small>390</small>",
          "           </td>",
          "           <td>",
          "             SUSE Product Design System",
          "           </td>",
          "           <td>",
          "             <span class='badge badge-pill badge-primary'>Active</span>",
          "           </td>",
          "           <td>",
          "             <div class='form-group'>",
          "               <div class='form-check custom-switch'>",
          "                 <input type='checkbox' class='custom-control-input' id='customSwitch1' checked>",
          "                 <label class='custom-control-label' for='customSwitch1'></label>",
          "               </div>",
          "           </div>",
          "           </td>",
          "           <td class='text-right'>",
          "             <div class='dropdown'>",
          "               <a role='button' data-toggle='dropdown' aria-haspopup='true' aria-expanded='false'>",
          "                 <i class='eos-icons eos-18' data-toggle='tooltip' title='More'>more_vert</i>",
          "               </a>",
          "               <div class='dropdown-menu dropdown-menu-right dropdown-menu-arrow'>",
          "                 <a href='' class='dropdown-item'>",
          "                  <i class='eos-icons eos-18'>edit</i>",
          "                  Edit entry",
          "                 </a>",
          "                 <a href='' class='dropdown-item'>",
          "                  <i class='eos-icons eos-18'>remove_circle</i>",
          "                  Delete product",
          "                 </a>",
          "               </div>",
          "             </div>",
          "           </td>",
          "         </tr>",
          "         <tr>",
          "           <td>",
          "             <small>470</small>",
          "           </td>",
          "           <td>",
          "             SUSE Enterprise storage",
          "           </td>",
          "           <td>",
          "             <span class='badge badge-pill badge-danger'>Expired</span>",
          "           </td>",
          "           <td>",
          "             <div class='form-group'>",
          "               <div class='form-check custom-switch'>",
          "                 <input type='checkbox' class='custom-control-input' id='customSwitch1'>",
          "                 <label class='custom-control-label' for='customSwitch1'></label>",
          "               </div>",
          "           </div>",
          "           </td>",
          "           <td class='text-right'>",
          "             <div class='dropdown'>",
          "               <a role='button' data-toggle='dropdown' aria-haspopup='true' aria-expanded='false'>",
          "                 <i class='eos-icons eos-18' data-toggle='tooltip' title='More'>more_vert</i>",
          "               </a>",
          "               <div class='dropdown-menu dropdown-menu-right dropdown-menu-arrow'>",
          "                 <a href='' class='dropdown-item'>",
          "                  <i class='eos-icons eos-18'>edit</i>",
          "                  Edit entry",
          "                 </a>",
          "                 <a href='' class='dropdown-item'>",
          "                  <i class='eos-icons eos-18'>remove_circle</i>",
          "                  Delete product",
          "                 </a>",
          "               </div>",
          "             </div>",
          "           </td>",
          "         </tr>",
          "         <tr>",
          "           <td>",
          "             <small>470</small>",
          "           </td>",
          "           <td>",
          "             SUSE Linux Enterprise Server for SAP Applica­tions",
          "           </td>",
          "           <td>",
          "             <span class='badge badge-pill badge-warning'>About to expire</span>",
          "           </td>",
          "           <td>",
          "             <div class='form-group'>",
          "               <div class='form-check custom-switch'>",
          "                 <input type='checkbox' class='custom-control-input' id='customSwitch1'>",
          "                 <label class='custom-control-label' for='customSwitch1'></label>",
          "               </div>",
          "           </div>",
          "           </td>",
          "           <td class='text-right'>",
          "             <div class='dropdown'>",
          "               <a role='button' data-toggle='dropdown' aria-haspopup='true' aria-expanded='false'>",
          "                 <i class='eos-icons eos-18' data-toggle='tooltip' title='More'>more_vert</i>",
          "               </a>",
          "               <div class='dropdown-menu dropdown-menu-right dropdown-menu-arrow'>",
          "                 <a href='' class='dropdown-item'>",
          "                  <i class='eos-icons eos-18'>edit</i>",
          "                  Edit entry",
          "                 </a>",
          "                 <a href='' class='dropdown-item'>",
          "                  <i class='eos-icons eos-18'>remove_circle</i>",
          "                  Delete product",
          "                 </a>",
          "               </div>",
          "             </div>",
          "           </td>",
          "         </tr>",
          "         <tr>",
          "           <td>",
          "             <small>470</small>",
          "           </td>",
          "           <td>",
          "             SUSE Manager Server",
          "           </td>",
          "           <td>",
          "             <span class='badge badge-pill badge-danger'>Expired</span>",
          "           </td>",
          "           <td>",
          "             <div class='form-group'>",
          "               <div class='form-check custom-switch'>",
          "                 <input type='checkbox' class='custom-control-input' id='customSwitch1' checked>",
          "                 <label class='custom-control-label' for='customSwitch1'></label>",
          "               </div>",
          "           </div>",
          "           </td>",
          "           <td class='text-right'>",
          "             <div class='dropdown'>",
          "               <a role='button' data-toggle='dropdown' aria-haspopup='true' aria-expanded='false'>",
          "                 <i class='eos-icons eos-18' data-toggle='tooltip' title='More'>more_vert</i>",
          "               </a>",
          "               <div class='dropdown-menu dropdown-menu-right dropdown-menu-arrow'>",
          "                 <a href='' class='dropdown-item'>",
          "                  <i class='eos-icons eos-18'>edit</i>",
          "                  Edit entry",
          "                 </a>",
          "                 <a href='' class='dropdown-item'>",
          "                  <i class='eos-icons eos-18'>remove_circle</i>",
          "                  Delete product",
          "                 </a>",
          "               </div>",
          "             </div>",
          "           </td>",
          "         </tr>",
          "         <tr>",
          "           <td>",
          "             <small>470</small>",
          "           </td>",
          "           <td>",
          "             SUSE Cloud Application Platform",
          "           </td>",
          "           <td>",
          "             <span class='badge badge-pill badge-secondary'>Inactive</span>",
          "           </td>",
          "           <td>",
          "             <div class='form-group'>",
          "               <div class='form-check custom-switch'>",
          "                 <input type='checkbox' class='custom-control-input' id='customSwitch1'>",
          "                 <label class='custom-control-label' for='customSwitch1'></label>",
          "               </div>",
          "           </div>",
          "           </td>",
          "           <td class='text-right'>",
          "             <div class='dropdown'>",
          "               <a role='button' data-toggle='dropdown' aria-haspopup='true' aria-expanded='false'>",
          "                 <i class='eos-icons eos-18' data-toggle='tooltip' title='More'>more_vert</i>",
          "               </a>",
          "               <div class='dropdown-menu dropdown-menu-right dropdown-menu-arrow'>",
          "                 <a href='' class='dropdown-item'>",
          "                  <i class='eos-icons eos-18'>edit</i>",
          "                  Edit entry",
          "                 </a>",
          "                 <a href='' class='dropdown-item'>",
          "                  <i class='eos-icons eos-18'>remove_circle</i>",
          "                  Delete product",
          "                 </a>",
          "               </div>",
          "             </div>",
          "           </td>",
          "         </tr>",
          "      </tbody>",
          "  </table>",
          "</div>"
        ]
      },
      {
        "status": "without card",
        "how_to_use": "",
        "code": [
          "<div class='table-responsive'>",
          "     <table class='table eos-table'>",
          "       <thead>",
          "         <tr>",
          "           <th scope='col'>ID</th>",
          "           <th scope='col'>Company</th>",
          "           <th scope='col'>Status</th>",
          "           <th scope='col' colspan='2'>Active</th>",
          "         </tr>",
          "       </thead>",
          "       <tbody>",
          "         <tr>",
          "           <td>",
          "             <small>390</small>",
          "           </td>",
          "           <td>",
          "             SUSE Product Design System",
          "           </td>",
          "           <td>",
          "             <span class='badge badge-pill badge-primary'>Active</span>",
          "           </td>",
          "           <td>",
          "             <div class='form-group'>",
          "               <div class='form-check custom-switch'>",
          "                 <input type='checkbox' class='custom-control-input' id='customSwitch1' checked>",
          "                 <label class='custom-control-label' for='customSwitch1'></label>",
          "               </div>",
          "           </div>",
          "           </td>",
          "           <td class='text-right'>",
          "             <div class='dropdown'>",
          "               <a role='button' data-toggle='dropdown' aria-haspopup='true' aria-expanded='false'>",
          "                 <i class='eos-icons eos-18' data-toggle='tooltip' title='More'>more_vert</i>",
          "               </a>",
          "               <div class='dropdown-menu dropdown-menu-right dropdown-menu-arrow'>",
          "                 <a href='' class='dropdown-item'>",
          "                  <i class='eos-icons eos-18'>edit</i>",
          "                  Edit entry",
          "                 </a>",
          "                 <a href='' class='dropdown-item'>",
          "                  <i class='eos-icons eos-18'>remove_circle</i>",
          "                  Delete product",
          "                 </a>",
          "               </div>",
          "             </div>",
          "           </td>",
          "         </tr>",
          "         <tr>",
          "           <td>",
          "             <small>470</small>",
          "           </td>",
          "           <td>",
          "             SUSE Enterprise storage",
          "           </td>",
          "           <td>",
          "             <span class='badge badge-pill badge-danger'>Expired</span>",
          "           </td>",
          "           <td>",
          "             <div class='form-group'>",
          "               <div class='form-check custom-switch'>",
          "                 <input type='checkbox' class='custom-control-input' id='customSwitch1'>",
          "                 <label class='custom-control-label' for='customSwitch1'></label>",
          "               </div>",
          "           </div>",
          "           </td>",
          "           <td class='text-right'>",
          "             <div class='dropdown'>",
          "               <a role='button' data-toggle='dropdown' aria-haspopup='true' aria-expanded='false'>",
          "                 <i class='eos-icons eos-18' data-toggle='tooltip' title='More'>more_vert</i>",
          "               </a>",
          "               <div class='dropdown-menu dropdown-menu-right dropdown-menu-arrow'>",
          "                 <a href='' class='dropdown-item'>",
          "                  <i class='eos-icons eos-18'>edit</i>",
          "                  Edit entry",
          "                 </a>",
          "                 <a href='' class='dropdown-item'>",
          "                  <i class='eos-icons eos-18'>remove_circle</i>",
          "                  Delete product",
          "                 </a>",
          "               </div>",
          "             </div>",
          "           </td>",
          "         </tr>",
          "         <tr>",
          "           <td>",
          "             <small>470</small>",
          "           </td>",
          "           <td>",
          "             SUSE Linux Enterprise Server for SAP Applica­tions",
          "           </td>",
          "           <td>",
          "             <span class='badge badge-pill badge-warning'>About to expire</span>",
          "           </td>",
          "           <td>",
          "             <div class='form-group'>",
          "               <div class='form-check custom-switch'>",
          "                 <input type='checkbox' class='custom-control-input' id='customSwitch1'>",
          "                 <label class='custom-control-label' for='customSwitch1'></label>",
          "               </div>",
          "           </div>",
          "           </td>",
          "           <td class='text-right'>",
          "             <div class='dropdown'>",
          "               <a role='button' data-toggle='dropdown' aria-haspopup='true' aria-expanded='false'>",
          "                 <i class='eos-icons eos-18' data-toggle='tooltip' title='More'>more_vert</i>",
          "               </a>",
          "               <div class='dropdown-menu dropdown-menu-right dropdown-menu-arrow'>",
          "                 <a href='' class='dropdown-item'>",
          "                  <i class='eos-icons eos-18'>edit</i>",
          "                  Edit entry",
          "                 </a>",
          "                 <a href='' class='dropdown-item'>",
          "                  <i class='eos-icons eos-18'>remove_circle</i>",
          "                  Delete product",
          "                 </a>",
          "               </div>",
          "             </div>",
          "           </td>",
          "         </tr>",
          "         <tr>",
          "           <td>",
          "             <small>470</small>",
          "           </td>",
          "           <td>",
          "             SUSE Manager Server",
          "           </td>",
          "           <td>",
          "             <span class='badge badge-pill badge-danger'>Expired</span>",
          "           </td>",
          "           <td>",
          "             <div class='form-group'>",
          "               <div class='form-check custom-switch'>",
          "                 <input type='checkbox' class='custom-control-input' id='customSwitch1' checked>",
          "                 <label class='custom-control-label' for='customSwitch1'></label>",
          "               </div>",
          "           </div>",
          "           </td>",
          "           <td class='text-right'>",
          "             <div class='dropdown'>",
          "               <a role='button' data-toggle='dropdown' aria-haspopup='true' aria-expanded='false'>",
          "                 <i class='eos-icons eos-18' data-toggle='tooltip' title='More'>more_vert</i>",
          "               </a>",
          "               <div class='dropdown-menu dropdown-menu-right dropdown-menu-arrow'>",
          "                 <a href='' class='dropdown-item'>",
          "                  <i class='eos-icons eos-18'>edit</i>",
          "                  Edit entry",
          "                 </a>",
          "                 <a href='' class='dropdown-item'>",
          "                  <i class='eos-icons eos-18'>remove_circle</i>",
          "                  Delete product",
          "                 </a>",
          "               </div>",
          "             </div>",
          "           </td>",
          "         </tr>",
          "         <tr>",
          "           <td>",
          "             <small>470</small>",
          "           </td>",
          "           <td>",
          "             SUSE Cloud Application Platform",
          "           </td>",
          "           <td>",
          "             <span class='badge badge-pill badge-secondary'>Inactive</span>",
          "           </td>",
          "           <td>",
          "             <div class='form-group'>",
          "               <div class='form-check custom-switch'>",
          "                 <input type='checkbox' class='custom-control-input' id='customSwitch1'>",
          "                 <label class='custom-control-label' for='customSwitch1'></label>",
          "               </div>",
          "           </div>",
          "           </td>",
          "           <td class='text-right'>",
          "             <div class='dropdown'>",
          "               <a role='button' data-toggle='dropdown' aria-haspopup='true' aria-expanded='false'>",
          "                 <i class='eos-icons eos-18' data-toggle='tooltip' title='More'>more_vert</i>",
          "               </a>",
          "               <div class='dropdown-menu dropdown-menu-right dropdown-menu-arrow'>",
          "                 <a href='' class='dropdown-item'>",
          "                  <i class='eos-icons eos-18'>edit</i>",
          "                  Edit entry",
          "                 </a>",
          "                 <a href='' class='dropdown-item'>",
          "                  <i class='eos-icons eos-18'>remove_circle</i>",
          "                  Delete product",
          "                 </a>",
          "               </div>",
          "             </div>",
          "           </td>",
          "         </tr>",
          "      </tbody>",
          "  </table>",
          "</div>"
        ]
      },
      {
        "status": "small",
        "how_to_use": "",
        "code": [
          "<div class='card eos-table-card'>",
          " <div class='card-header'>",
          "   <span class='eos-table-card-title'>Small table</span>",
          "   <div class='eos-table-card-controls'>",
          "     <ul class='list-inline eos-table-actions'>",
          "       <li class='list-inline-item'>",
          "         <a>",
          "           <i class='eos-icons eos-18 eos-dark' data-toggle='tooltip' title='Search'>",
          "             search",
          "           </i>",
          "         </a>",
          "       </li>",
          "       <li class='list-inline-item'>",
          "         <a>",
          "           <i class='eos-icons eos-18 eos-dark' data-toggle='tooltip' title='File download'>",
          "             file_download",
          "           </i>",
          "          </a>",
          "       </li>",
          "       <li class='list-inline-item'>",
          "         <a>",
          "           <i class='eos-icons eos-18 eos-dark' data-toggle='tooltip' title='Settings'>",
          "             settings",
          "           </i>",
          "         </a>",
          "       </li>",
          "       <li class='list-inline-item'>",
          "         <a>",
          "           <i class='eos-icons eos-18 eos-dark' data-toggle='tooltip' title='Delete'>",
          "             delete",
          "           </i>",
          "         </a>",
          "       </li>",
          "     </ul>",
          "   </div>",
          "  </div>",
          "  <div class='table-responsive'>",
          "     <table class='table table-sm eos-table'>",
          "       <thead>",
          "         <tr>",
          "           <th scope='col'>ID</th>",
          "           <th scope='col'>Company</th>",
          "           <th scope='col'>Status</th>",
          "           <th scope='col' colspan='2'>Active</th>",
          "         </tr>",
          "       </thead>",
          "       <tbody>",
          "         <tr>",
          "           <td>",
          "             <small>390</small>",
          "           </td>",
          "           <td>",
          "             SUSE Product Design System",
          "           </td>",
          "           <td>",
          "             <span class='badge badge-pill badge-primary'>Active</span>",
          "           </td>",
          "           <td>",
          "             <div class='form-group'>",
          "               <div class='form-check custom-switch'>",
          "                 <input type='checkbox' class='custom-control-input' id='customSwitch1' checked>",
          "                 <label class='custom-control-label' for='customSwitch1'></label>",
          "               </div>",
          "           </div>",
          "           </td>",
          "           <td class='text-right'>",
          "             <div class='dropdown'>",
          "               <a role='button' data-toggle='dropdown' aria-haspopup='true' aria-expanded='false'>",
          "                 <i class='eos-icons eos-18' data-toggle='tooltip' title='More'>more_vert</i>",
          "               </a>",
          "               <div class='dropdown-menu dropdown-menu-right dropdown-menu-arrow'>",
          "                 <a href='' class='dropdown-item'>",
          "                  <i class='eos-icons eos-18'>edit</i>",
          "                  Edit entry",
          "                 </a>",
          "                 <a href='' class='dropdown-item'>",
          "                  <i class='eos-icons eos-18'>remove_circle</i>",
          "                  Delete product",
          "                 </a>",
          "               </div>",
          "             </div>",
          "           </td>",
          "         </tr>",
          "         <tr>",
          "           <td>",
          "             <small>470</small>",
          "           </td>",
          "           <td>",
          "             SUSE Enterprise storage",
          "           </td>",
          "           <td>",
          "             <span class='badge badge-pill badge-danger'>Expired</span>",
          "           </td>",
          "           <td>",
          "             <div class='form-group'>",
          "               <div class='form-check custom-switch'>",
          "                 <input type='checkbox' class='custom-control-input' id='customSwitch1'>",
          "                 <label class='custom-control-label' for='customSwitch1'></label>",
          "               </div>",
          "           </div>",
          "           </td>",
          "           <td class='text-right'>",
          "             <div class='dropdown'>",
          "               <a role='button' data-toggle='dropdown' aria-haspopup='true' aria-expanded='false'>",
          "                 <i class='eos-icons eos-18' data-toggle='tooltip' title='More'>more_vert</i>",
          "               </a>",
          "               <div class='dropdown-menu dropdown-menu-right dropdown-menu-arrow'>",
          "                 <a href='' class='dropdown-item'>",
          "                  <i class='eos-icons eos-18'>edit</i>",
          "                  Edit entry",
          "                 </a>",
          "                 <a href='' class='dropdown-item'>",
          "                  <i class='eos-icons eos-18'>remove_circle</i>",
          "                  Delete product",
          "                 </a>",
          "               </div>",
          "             </div>",
          "           </td>",
          "         </tr>",
          "         <tr>",
          "           <td>",
          "             <small>470</small>",
          "           </td>",
          "           <td>",
          "             SUSE Linux Enterprise Server for SAP Applica­tions",
          "           </td>",
          "           <td>",
          "             <span class='badge badge-pill badge-warning'>About to expire</span>",
          "           </td>",
          "           <td>",
          "             <div class='form-group'>",
          "               <div class='form-check custom-switch'>",
          "                 <input type='checkbox' class='custom-control-input' id='customSwitch1'>",
          "                 <label class='custom-control-label' for='customSwitch1'></label>",
          "               </div>",
          "           </div>",
          "           </td>",
          "           <td class='text-right'>",
          "             <div class='dropdown'>",
          "               <a role='button' data-toggle='dropdown' aria-haspopup='true' aria-expanded='false'>",
          "                 <i class='eos-icons eos-18' data-toggle='tooltip' title='More'>more_vert</i>",
          "               </a>",
          "               <div class='dropdown-menu dropdown-menu-right dropdown-menu-arrow'>",
          "                 <a href='' class='dropdown-item'>",
          "                  <i class='eos-icons eos-18'>edit</i>",
          "                  Edit entry",
          "                 </a>",
          "                 <a href='' class='dropdown-item'>",
          "                  <i class='eos-icons eos-18'>remove_circle</i>",
          "                  Delete product",
          "                 </a>",
          "               </div>",
          "             </div>",
          "           </td>",
          "         </tr>",
          "         <tr>",
          "           <td>",
          "             <small>470</small>",
          "           </td>",
          "           <td>",
          "             SUSE Manager Server",
          "           </td>",
          "           <td>",
          "             <span class='badge badge-pill badge-danger'>Expired</span>",
          "           </td>",
          "           <td>",
          "             <div class='form-group'>",
          "               <div class='form-check custom-switch'>",
          "                 <input type='checkbox' class='custom-control-input' id='customSwitch1' checked>",
          "                 <label class='custom-control-label' for='customSwitch1'></label>",
          "               </div>",
          "           </div>",
          "           </td>",
          "           <td class='text-right'>",
          "             <div class='dropdown'>",
          "               <a role='button' data-toggle='dropdown' aria-haspopup='true' aria-expanded='false'>",
          "                 <i class='eos-icons eos-18' data-toggle='tooltip' title='More'>more_vert</i>",
          "               </a>",
          "               <div class='dropdown-menu dropdown-menu-right dropdown-menu-arrow'>",
          "                 <a href='' class='dropdown-item'>",
          "                  <i class='eos-icons eos-18'>edit</i>",
          "                  Edit entry",
          "                 </a>",
          "                 <a href='' class='dropdown-item'>",
          "                  <i class='eos-icons eos-18'>remove_circle</i>",
          "                  Delete product",
          "                 </a>",
          "               </div>",
          "             </div>",
          "           </td>",
          "         </tr>",
          "         <tr>",
          "           <td>",
          "             <small>470</small>",
          "           </td>",
          "           <td>",
          "             SUSE Cloud Application Platform",
          "           </td>",
          "           <td>",
          "             <span class='badge badge-pill badge-secondary'>Inactive</span>",
          "           </td>",
          "           <td>",
          "             <div class='form-group'>",
          "               <div class='form-check custom-switch'>",
          "                 <input type='checkbox' class='custom-control-input' id='customSwitch1'>",
          "                 <label class='custom-control-label' for='customSwitch1'></label>",
          "               </div>",
          "           </div>",
          "           </td>",
          "           <td class='text-right'>",
          "             <div class='dropdown'>",
          "               <a role='button' data-toggle='dropdown' aria-haspopup='true' aria-expanded='false'>",
          "                 <i class='eos-icons eos-18' data-toggle='tooltip' title='More'>more_vert</i>",
          "               </a>",
          "               <div class='dropdown-menu dropdown-menu-right dropdown-menu-arrow'>",
          "                 <a href='' class='dropdown-item'>",
          "                  <i class='eos-icons eos-18'>edit</i>",
          "                  Edit entry",
          "                 </a>",
          "                 <a href='' class='dropdown-item'>",
          "                  <i class='eos-icons eos-18'>remove_circle</i>",
          "                  Delete product",
          "                 </a>",
          "               </div>",
          "             </div>",
          "           </td>",
          "         </tr>",
          "      </tbody>",
          "  </table>",
          "</div>"
        ]
      },
      {
        "status": "selectable rows",
        "how_to_use": "Selectable rows are used when there are other actions to be performed. The row actions are placed in the top right corner of the table. For good UX, we recommend offering an option to select all rows. You will need javascript to be able to add this type of interaction.",
        "code": [
          "<div class='card eos-table-card'>",
          " <div class='card-header'>",
          "   <span class='eos-table-card-title'>Default table</span>",
          "   <div class='eos-table-card-controls'>",
          "     <ul class='list-inline eos-table-actions'>",
          "       <li class='list-inline-item'>",
          "         <a>",
          "           <i class='eos-icons eos-18 eos-dark' data-toggle='tooltip' title='Search'>",
          "             search",
          "           </i>",
          "         </a>",
          "       </li>",
          "       <li class='list-inline-item'>",
          "         <a>",
          "           <i class='eos-icons eos-18 eos-dark' data-toggle='tooltip' title='File download'>",
          "             file_download",
          "           </i>",
          "          </a>",
          "       </li>",
          "       <li class='list-inline-item'>",
          "         <a>",
          "           <i class='eos-icons eos-18 eos-dark' data-toggle='tooltip' title='Settings'>",
          "             settings",
          "           </i>",
          "         </a>",
          "       </li>",
          "       <li class='list-inline-item'>",
          "         <a>",
          "           <i class='eos-icons eos-18 eos-dark' data-toggle='tooltip' title='Delete'>",
          "             delete",
          "           </i>",
          "         </a>",
          "       </li>",
          "     </ul>",
          "   </div>",
          "  </div>",
          "  <div class='table-responsive'>",
          "     <table class='table eos-table'>",
          "       <thead>",
          "           <th scope='col'>",
          "             <div class='form-check'>",
          "               <input class='form-check-input eos-checkbox' type='checkbox' id='option-1'>",
          "                 <label class='form-check-label' for='option-1'>",
          "                   option 1",
          "                 </label>",
          "             </div>",
          "           </th>",
          "           <th scope='col'>ID</th>",
          "           <th scope='col'>Company</th>",
          "           <th scope='col'>Status</th>",
          "           <th scope='col' colspan='2'>Active</th>",
          "         </tr>",
          "       </thead>",
          "       <tbody>",
          "         <tr>",
          "           <td>",
          "             <div class='form-check'>",
          "                 <input class='form-check-input eos-checkbox' type='checkbox' id='option-2'>",
          "                 <label class='form-check-label' for='option-2'>",
          "                   option 1",
          "                 </label>",
          "             </div>",
          "           </td>",
          "           <td>",
          "             <small>390</small>",
          "           </td>",
          "           <td>",
          "             SUSE Product Design System",
          "           </td>",
          "           <td>",
          "             <span class='badge badge-pill badge-primary'>Active</span>",
          "           </td>",
          "           <td>",
          "             <div class='form-group'>",
          "               <div class='form-check custom-switch'>",
          "                 <input type='checkbox' class='custom-control-input' id='customSwitch1' checked>",
          "                 <label class='custom-control-label' for='customSwitch1'></label>",
          "               </div>",
          "             </div>",
          "           </td>",
          "           <td class='text-right'>",
          "             <div class='dropdown'>",
          "               <a role='button' data-toggle='dropdown' aria-haspopup='true' aria-expanded='false'>",
          "                 <i class='eos-icons eos-18' data-toggle='tooltip' title='More'>more_vert</i>",
          "               </a>",
          "               <div class='dropdown-menu dropdown-menu-right dropdown-menu-arrow'>",
          "                 <a href='' class='dropdown-item'>",
          "                  <i class='eos-icons eos-18'>edit</i>",
          "                  Edit entry",
          "                 </a>",
          "                 <a href='' class='dropdown-item'>",
          "                  <i class='eos-icons eos-18'>remove_circle</i>",
          "                  Delete product",
          "                 </a>",
          "               </div>",
          "             </div>",
          "           </td>",
          "         </tr>",
          "         <tr>",
          "           <td>",
          "             <div class='form-check'>",
          "                 <input class='form-check-input eos-checkbox' type='checkbox' id='option-3'>",
          "                 <label class='form-check-label' for='option-3'>",
          "                   option 1",
          "                 </label>",
          "             </div>",
          "           </td>",
          "           <td>",
          "             <small>470</small>",
          "           </td>",
          "           <td>",
          "             SUSE Enterprise storage",
          "           </td>",
          "           <td>",
          "             <span class='badge badge-pill badge-danger'>Expired</span>",
          "           </td>",
          "           <td>",
          "             <div class='form-group'>",
          "               <div class='form-check custom-switch'>",
          "                 <input type='checkbox' class='custom-control-input' id='customSwitch1'>",
          "                 <label class='custom-control-label' for='customSwitch1'></label>",
          "               </div>",
          "           </div>",
          "           </td>",
          "           <td class='text-right'>",
          "             <div class='dropdown'>",
          "               <a role='button' data-toggle='dropdown' aria-haspopup='true' aria-expanded='false'>",
          "                 <i class='eos-icons eos-18' data-toggle='tooltip' title='More'>more_vert</i>",
          "               </a>",
          "               <div class='dropdown-menu dropdown-menu-right dropdown-menu-arrow'>",
          "                 <a href='' class='dropdown-item'>",
          "                  <i class='eos-icons eos-18'>edit</i>",
          "                  Edit entry",
          "                 </a>",
          "                 <a href='' class='dropdown-item'>",
          "                  <i class='eos-icons eos-18'>remove_circle</i>",
          "                  Delete product",
          "                 </a>",
          "               </div>",
          "             </div>",
          "           </td>",
          "         </tr>",
          "         <tr>",
          "           <td>",
          "             <div class='form-check'>",
          "                 <input class='form-check-input eos-checkbox' type='checkbox' id='option-4'>",
          "                 <label class='form-check-label' for='option-4'>",
          "                   option 1",
          "                 </label>",
          "             </div>",
          "           </td>",
          "           <td>",
          "             <small>470</small>",
          "           </td>",
          "           <td>",
          "             SUSE Linux Enterprise Server for SAP Applica­tions",
          "           </td>",
          "           <td>",
          "             <span class='badge badge-pill badge-warning'>About to expire</span>",
          "           </td>",
          "           <td>",
          "             <div class='form-group'>",
          "               <div class='form-check custom-switch'>",
          "                 <input type='checkbox' class='custom-control-input' id='customSwitch1'>",
          "                 <label class='custom-control-label' for='customSwitch1'></label>",
          "               </div>",
          "           </div>",
          "           </td>",
          "           <td class='text-right'>",
          "             <div class='dropdown'>",
          "               <a role='button' data-toggle='dropdown' aria-haspopup='true' aria-expanded='false'>",
          "                 <i class='eos-icons eos-18' data-toggle='tooltip' title='More'>more_vert</i>",
          "               </a>",
          "               <div class='dropdown-menu dropdown-menu-right dropdown-menu-arrow'>",
          "                 <a href='' class='dropdown-item'>",
          "                  <i class='eos-icons eos-18'>edit</i>",
          "                  Edit entry",
          "                 </a>",
          "                 <a href='' class='dropdown-item'>",
          "                  <i class='eos-icons eos-18'>remove_circle</i>",
          "                  Delete product",
          "                 </a>",
          "               </div>",
          "             </div>",
          "           </td>",
          "         </tr>",
          "         <tr>",
          "           <td>",
          "             <div class='form-check'>",
          "                 <input class='form-check-input eos-checkbox' type='checkbox' id='option-5'>",
          "                 <label class='form-check-label' for='option-5'>",
          "                   option 1",
          "                 </label>",
          "             </div>",
          "           </td>",
          "           <td>",
          "             <small>470</small>",
          "           </td>",
          "           <td>",
          "             SUSE Manager Server",
          "           </td>",
          "           <td>",
          "             <span class='badge badge-pill badge-danger'>Expired</span>",
          "           </td>",
          "           <td>",
          "             <div class='form-group'>",
          "               <div class='form-check custom-switch'>",
          "                 <input type='checkbox' class='custom-control-input' id='customSwitch1' checked>",
          "                 <label class='custom-control-label' for='customSwitch1'></label>",
          "               </div>",
          "           </div>",
          "           </td>",
          "           <td class='text-right'>",
          "             <div class='dropdown'>",
          "               <a role='button' data-toggle='dropdown' aria-haspopup='true' aria-expanded='false'>",
          "                 <i class='eos-icons eos-18' data-toggle='tooltip' title='More'>more_vert</i>",
          "               </a>",
          "               <div class='dropdown-menu dropdown-menu-right dropdown-menu-arrow'>",
          "                 <a href='' class='dropdown-item'>",
          "                  <i class='eos-icons eos-18'>edit</i>",
          "                  Edit entry",
          "                 </a>",
          "                 <a href='' class='dropdown-item'>",
          "                  <i class='eos-icons eos-18'>remove_circle</i>",
          "                  Delete product",
          "                 </a>",
          "               </div>",
          "             </div>",
          "           </td>",
          "         </tr>",
          "         <tr>",
          "           <td>",
          "             <div class='form-check'>",
          "                 <input class='form-check-input eos-checkbox' type='checkbox' id='option-6'>",
          "                 <label class='form-check-label' for='option-6'>",
          "                   option 1",
          "                 </label>",
          "             </div>",
          "           </td>",
          "           <td>",
          "             <small>470</small>",
          "           </td>",
          "           <td>",
          "             SUSE Cloud Application Platform",
          "           </td>",
          "           <td>",
          "             <span class='badge badge-pill badge-secondary'>Inactive</span>",
          "           </td>",
          "           <td>",
          "             <div class='form-group'>",
          "               <div class='form-check custom-switch'>",
          "                 <input type='checkbox' class='custom-control-input' id='customSwitch1'>",
          "                 <label class='custom-control-label' for='customSwitch1'></label>",
          "               </div>",
          "           </div>",
          "           </td>",
          "           <td class='text-right'>",
          "             <div class='dropdown'>",
          "               <a role='button' data-toggle='dropdown' aria-haspopup='true' aria-expanded='false'>",
          "                 <i class='eos-icons eos-18' data-toggle='tooltip' title='More'>more_vert</i>",
          "               </a>",
          "               <div class='dropdown-menu dropdown-menu-right dropdown-menu-arrow'>",
          "                 <a href='' class='dropdown-item'>",
          "                  <i class='eos-icons eos-18'>edit</i>",
          "                  Edit entry",
          "                 </a>",
          "                 <a href='' class='dropdown-item'>",
          "                  <i class='eos-icons eos-18'>remove_circle</i>",
          "                  Delete product",
          "                 </a>",
          "               </div>",
          "             </div>",
          "           </td>",
          "         </tr>",
          "      </tbody>",
          "  </table>",
          "</div>"
        ]
      }
    ]
  }
]
