[
  {
    "states": [
      {
        "status": "default",
        "how_to_use": "",
        "code": [
          "<a data-toggle='tooltip' data-original-title='Click here for more info'>Info</a>"
        ]
      },
      {
        "status": "Tooltip on icon only button",
        "how_to_use": "",
        "code": [
          "<button class='btn btn-icon btn-secondary' data-toggle='tooltip' title='Add'>",
          "  <i class='eos-icons eos-18'>add</i>",
          "</button>"
        ]
      },
      {
        "status": "directions",
        "how_to_use": "",
        "code": [
          "<button class='btn btn-icon btn-secondary' data-placement='left' data-toggle='tooltip' title='Tooltip on left'>",
          "  Tooltip on left",
          "</button>",
          "<button class='btn btn-icon btn-secondary' data-placement='top' data-toggle='tooltip' title='Tooltip on top'>",
          "  Tooltip on top",
          "</button>",
          "<button class='btn btn-icon btn-secondary' data-placement='bottom' data-toggle='tooltip' title='Tooltip on bottom'>",
          "  Tooltip on bottom",
          "</button>",
          "<button class='btn btn-icon btn-secondary' data-placement='right' data-toggle='tooltip' title='Tooltip on right'>",
          "  Tooltip on right",
          "</button>"
        ]
      }
    ]
  }
]
