<?xml version="1.0" encoding="utf-8"?>
<!-- Generator: Adobe Illustrator 24.0.1, SVG Export Plug-In . SVG Version: 6.00 Build 0)  -->
<svg version="1.1" id="Layer_1" xmlns="http://www.w3.org/2000/svg" xmlns:xlink="http://www.w3.org/1999/xlink" x="0px" y="0px"
	 viewBox="0 0 24 22" style="enable-background:new 0 0 24 22;" xml:space="preserve">
<style type="text/css">
	.st0{fill:#141823;}
</style>
<path class="st0" d="M23.9,12.6l-1.3-4.1l-2.6-8.1C19.8,0.1,19.6,0,19.4,0c-0.2,0-0.3,0.2-0.3,0.3l-2.7,8.1H7.6L5,0.3
	C4.9,0.1,4.6,0,4.4,0c-0.2,0-0.3,0.2-0.3,0.3L1.4,8.5l-1.3,4.1c-0.1,0.4,0,0.8,0.3,1L12,22l11.6-8.4C23.9,13.4,24,13,23.9,12.6"/>
</svg>
